test/mma_controller/wave.vcd
$version Generated by VerilatedVcd $end
$timescale 1ps $end
 $scope module tb_mma_controller $end
  $var wire 32 W WEIGHT_WIDTH [31:0] $end
  $var wire 32 X DATA_WIDTH [31:0] $end
  $var wire 32 X SIZE [31:0] $end
  $var wire 32 Y BUS_WIDTH [31:0] $end
  $var wire 32 Y REG_WIDTH [31:0] $end
  $var wire 32 Z CLK_PERIOD [31:0] $end
  $var wire 1 ? clk $end
  $var wire 1 @ rst_n $end
  $scope module ctrl_if $end
   $var wire 32 Y REG_WIDTH [31:0] $end
   $var wire 1 ? clk $end
   $var wire 1 A calc_start $end
   $var wire 1 B cfg_16bits_ia $end
   $var wire 1 # sa_ready $end
   $var wire 3 $ icb_sel [2:0] $end
   $var wire 1 % init_cfg_ia $end
   $var wire 1 & init_cfg_weight $end
   $var wire 1 ' init_cfg_bias $end
   $var wire 1 ( init_cfg_requant $end
   $var wire 1 ) init_cfg_oa $end
   $var wire 1 * use_16bits $end
   $var wire 32 [ tile_count [31:0] $end
   $var wire 1 N fifo_full_flag $end
  $upscope $end
  $scope module ia_if $end
   $var wire 1 ? clk $end
   $var wire 1 D load_ia_req $end
   $var wire 1 + load_ia_granted $end
   $var wire 1 , send_ia_trigger $end
   $var wire 1 E ia_sending_done $end
   $var wire 1 U ia_calc_done $end
   $var wire 1 F ia_data_valid $end
  $upscope $end
  $scope module weight_if $end
   $var wire 1 ? clk $end
   $var wire 1 G load_weight_req $end
   $var wire 1 - load_weight_granted $end
   $var wire 1 . send_weight_trigger $end
   $var wire 1 H weight_sending_done $end
   $var wire 1 I weight_data_valid $end
  $upscope $end
  $scope module bias_if $end
   $var wire 1 ? clk $end
   $var wire 1 J load_bias_req $end
   $var wire 1 / load_bias_granted $end
   $var wire 1 K bias_valid $end
  $upscope $end
  $scope module quant_if $end
   $var wire 1 ? clk $end
   $var wire 1 L load_quant_req $end
   $var wire 1 0 load_quant_granted $end
   $var wire 1 M quant_params_valid $end
  $upscope $end
  $scope module oa_if $end
   $var wire 1 ? clk $end
   $var wire 1 O write_oa_req $end
   $var wire 1 1 write_oa_granted $end
   $var wire 1 P write_done $end
   $var wire 1 Q oa_calc_over $end
  $upscope $end
  $scope module comp_if $end
   $var wire 1 ? clk $end
   $var wire 1 C partial_sum_calc_over $end
   $var wire 1 V tile_calc_over $end
  $upscope $end
  $scope module dut $end
   $var wire 32 W WEIGHT_WIDTH [31:0] $end
   $var wire 32 X DATA_WIDTH [31:0] $end
   $var wire 32 X SIZE [31:0] $end
   $var wire 32 Y BUS_WIDTH [31:0] $end
   $var wire 32 Y REG_WIDTH [31:0] $end
   $var wire 1 ? clk $end
   $var wire 1 @ rst_n $end
   $var wire 1 A calc_start $end
   $var wire 1 B cfg_16bits_ia $end
   $var wire 1 # sa_ready $end
   $var wire 3 $ icb_sel [2:0] $end
   $var wire 1 % init_cfg_ia $end
   $var wire 1 & init_cfg_weight $end
   $var wire 1 ' init_cfg_bias $end
   $var wire 1 ( init_cfg_requant $end
   $var wire 1 ) init_cfg_oa $end
   $var wire 1 * use_16bits $end
   $var wire 32 [ tile_count [31:0] $end
   $var wire 1 C partial_sum_calc_over $end
   $var wire 1 D load_ia_req $end
   $var wire 1 + load_ia_granted $end
   $var wire 1 , send_ia_trigger $end
   $var wire 1 E ia_sending_done $end
   $var wire 1 F ia_data_valid $end
   $var wire 1 G load_weight_req $end
   $var wire 1 - load_weight_granted $end
   $var wire 1 . send_weight_trigger $end
   $var wire 1 H weight_sending_done $end
   $var wire 1 I weight_data_valid $end
   $var wire 1 J load_bias_req $end
   $var wire 1 / load_bias_granted $end
   $var wire 1 K bias_valid $end
   $var wire 1 L load_quant_req $end
   $var wire 1 0 load_quant_granted $end
   $var wire 1 M quant_params_valid $end
   $var wire 1 N fifo_full_flag $end
   $var wire 1 O write_oa_req $end
   $var wire 1 1 write_oa_granted $end
   $var wire 1 P write_done $end
   $var wire 1 Q oa_calc_over $end
   $var wire 3 2 current_state [2:0] $end
   $var wire 3 R next_state [2:0] $end
   $var wire 1 3 cfg_16bits_ia_reg $end
   $scope module u_icb_arbiter $end
    $var wire 1 ? clk $end
    $var wire 1 @ rst_n $end
    $var wire 1 D s0_req $end
    $var wire 1 + s0_granted $end
    $var wire 1 F s0_done $end
    $var wire 1 G s1_req $end
    $var wire 1 - s1_granted $end
    $var wire 1 I s1_done $end
    $var wire 1 J s2_req $end
    $var wire 1 / s2_granted $end
    $var wire 1 K s2_done $end
    $var wire 1 L s3_req $end
    $var wire 1 0 s3_granted $end
    $var wire 1 M s3_done $end
    $var wire 1 O s4_req $end
    $var wire 1 1 s4_granted $end
    $var wire 1 P s4_done $end
    $var wire 3 $ icb_sel [2:0] $end
    $var wire 3 4 current_master [2:0] $end
    $var wire 1 5 bus_busy $end
    $var wire 3 6 priority_queue[0] [2:0] $end
    $var wire 3 7 priority_queue[1] [2:0] $end
    $var wire 3 8 priority_queue[2] [2:0] $end
    $var wire 3 9 priority_queue[3] [2:0] $end
    $var wire 3 : next_priority_queue[0] [2:0] $end
    $var wire 3 ; next_priority_queue[1] [2:0] $end
    $var wire 3 < next_priority_queue[2] [2:0] $end
    $var wire 3 = next_priority_queue[3] [2:0] $end
    $var wire 1 S bus_idle $end
    $var wire 1 T current_done $end
    $scope module unnamedblk1 $end
     $var wire 3 > next_device [2:0] $end
    $upscope $end
   $upscope $end
  $upscope $end
 $upscope $end
$enddefinitions $end


#0
1#
b000 $
0%
0&
0'
0(
0)
0*
0+
0,
0-
0.
0/
00
01
b000 2
03
b000 4
05
b000 6
b000 7
b000 8
b000 9
b000 :
b000 ;
b000 <
b000 =
b000 >
0?
0@
0A
0B
0C
0D
0E
0F
0G
0H
0I
0J
0K
0L
0M
0N
0O
0P
0Q
b000 R
1S
0T
0U
0V
b00000000000000000000000000001000 W
b00000000000000000000000000010000 X
b00000000000000000000000000100000 Y
b00000000000000000000000000001010 Z
b00000000000000000000000000000000 [
#5000
b001 6
b011 8
b010 9
1?
#10000
0?
#15000
1?
#20000
0?
#25000
1?
#30000
0?
#35000
1?
#40000
0?
#45000
1?
#50000
0?
#55000
1?
#60000
0?
#65000
1?
#70000
0?
#75000
1?
#80000
0?
#85000
1?
#90000
0?
#95000
1?
#100000
0?
#105000
1?
#110000
0?
#115000
b111 >
1?
1@
#120000
0?
#125000
1?
#130000
0?
#135000
1?
#140000
0?
#145000
1?
#146000
1A
b001 R
#150000
0?
#155000
0#
b001 2
1?
b010 R
#156000
0A
#160000
0?
#165000
1%
1&
1'
1(
1)
b010 2
1?
#170000
0?
#175000
0%
0&
0'
0(
0)
1?
#176000
1D
1G
1J
1L
#180000
0?
#185000
b001 $
1-
b001 4
15
b001 >
1?
0S
#190000
0?
#195000
1?
#196000
0G
