test/mma_controller/wave.vcd
$version Generated by VerilatedVcd $end
$timescale 1ps $end
 $scope module tb_mma_controller $end
  $var wire 32 N WEIGHT_WIDTH [31:0] $end
  $var wire 32 O DATA_WIDTH [31:0] $end
  $var wire 32 O SIZE [31:0] $end
  $var wire 32 P BUS_WIDTH [31:0] $end
  $var wire 32 P REG_WIDTH [31:0] $end
  $var wire 32 Q CLK_PERIOD [31:0] $end
  $var wire 1 6 clk $end
  $var wire 1 7 rst_n $end
  $scope module ctrl_if $end
   $var wire 32 P REG_WIDTH [31:0] $end
   $var wire 1 6 clk $end
   $var wire 1 8 calc_start $end
   $var wire 1 9 cfg_16bits_ia $end
   $var wire 1 # sa_ready $end
   $var wire 3 $ icb_sel [2:0] $end
   $var wire 1 % init_cfg_ia $end
   $var wire 1 & init_cfg_weight $end
   $var wire 1 ' init_cfg_bias $end
   $var wire 1 ( init_cfg_requant $end
   $var wire 1 ) init_cfg_oa $end
   $var wire 1 * use_16bits $end
   $var wire 32 R tile_count [31:0] $end
   $var wire 1 F fifo_full_flag $end
  $upscope $end
  $scope module ia_if $end
   $var wire 1 6 clk $end
   $var wire 1 ; load_ia_req $end
   $var wire 1 + load_ia_granted $end
   $var wire 1 , send_ia_trigger $end
   $var wire 1 < ia_sending_done $end
   $var wire 1 = ia_calc_done $end
   $var wire 1 > ia_data_valid $end
  $upscope $end
  $scope module weight_if $end
   $var wire 1 6 clk $end
   $var wire 1 ? load_weight_req $end
   $var wire 1 - load_weight_granted $end
   $var wire 1 . send_weight_trigger $end
   $var wire 1 @ weight_sending_done $end
   $var wire 1 A weight_data_valid $end
  $upscope $end
  $scope module bias_if $end
   $var wire 1 6 clk $end
   $var wire 1 B load_bias_req $end
   $var wire 1 / load_bias_granted $end
   $var wire 1 C bias_valid $end
  $upscope $end
  $scope module quant_if $end
   $var wire 1 6 clk $end
   $var wire 1 D load_quant_req $end
   $var wire 1 0 load_quant_granted $end
   $var wire 1 E quant_params_valid $end
  $upscope $end
  $scope module oa_if $end
   $var wire 1 6 clk $end
   $var wire 1 G write_oa_req $end
   $var wire 1 1 write_oa_granted $end
   $var wire 1 H write_done $end
   $var wire 1 I oa_calc_over $end
  $upscope $end
  $scope module comp_if $end
   $var wire 1 6 clk $end
   $var wire 1 : partial_sum_calc_over $end
   $var wire 1 M tile_calc_over $end
  $upscope $end
  $scope module dut $end
   $var wire 32 N WEIGHT_WIDTH [31:0] $end
   $var wire 32 O DATA_WIDTH [31:0] $end
   $var wire 32 O SIZE [31:0] $end
   $var wire 32 P BUS_WIDTH [31:0] $end
   $var wire 32 P REG_WIDTH [31:0] $end
   $var wire 1 6 clk $end
   $var wire 1 7 rst_n $end
   $var wire 1 8 calc_start $end
   $var wire 1 9 cfg_16bits_ia $end
   $var wire 1 # sa_ready $end
   $var wire 3 $ icb_sel [2:0] $end
   $var wire 1 % init_cfg_ia $end
   $var wire 1 & init_cfg_weight $end
   $var wire 1 ' init_cfg_bias $end
   $var wire 1 ( init_cfg_requant $end
   $var wire 1 ) init_cfg_oa $end
   $var wire 1 * use_16bits $end
   $var wire 32 R tile_count [31:0] $end
   $var wire 1 : partial_sum_calc_over $end
   $var wire 1 ; load_ia_req $end
   $var wire 1 + load_ia_granted $end
   $var wire 1 , send_ia_trigger $end
   $var wire 1 < ia_sending_done $end
   $var wire 1 = ia_calc_done $end
   $var wire 1 > ia_data_valid $end
   $var wire 1 ? load_weight_req $end
   $var wire 1 - load_weight_granted $end
   $var wire 1 . send_weight_trigger $end
   $var wire 1 @ weight_sending_done $end
   $var wire 1 A weight_data_valid $end
   $var wire 1 B load_bias_req $end
   $var wire 1 / load_bias_granted $end
   $var wire 1 C bias_valid $end
   $var wire 1 D load_quant_req $end
   $var wire 1 0 load_quant_granted $end
   $var wire 1 E quant_params_valid $end
   $var wire 1 F fifo_full_flag $end
   $var wire 1 G write_oa_req $end
   $var wire 1 1 write_oa_granted $end
   $var wire 1 H write_done $end
   $var wire 1 I oa_calc_over $end
   $var wire 3 2 current_state [2:0] $end
   $var wire 3 J next_state [2:0] $end
   $var wire 1 3 cfg_16bits_ia_reg $end
   $scope module u_icb_arbiter $end
    $var wire 1 6 clk $end
    $var wire 1 7 rst_n $end
    $var wire 1 ; s0_req $end
    $var wire 1 + s0_granted $end
    $var wire 1 > s0_done $end
    $var wire 1 ? s1_req $end
    $var wire 1 - s1_granted $end
    $var wire 1 A s1_done $end
    $var wire 1 B s2_req $end
    $var wire 1 / s2_granted $end
    $var wire 1 C s2_done $end
    $var wire 1 D s3_req $end
    $var wire 1 0 s3_granted $end
    $var wire 1 E s3_done $end
    $var wire 1 G s4_req $end
    $var wire 1 1 s4_granted $end
    $var wire 1 H s4_done $end
    $var wire 3 $ icb_sel [2:0] $end
    $var wire 3 4 current_master [2:0] $end
    $var wire 1 5 bus_busy $end
    $var wire 1 K bus_idle $end
    $var wire 1 L current_done $end
   $upscope $end
  $upscope $end
 $upscope $end
$enddefinitions $end


#0
1#
b000 $
0%
0&
0'
0(
0)
0*
0+
0,
0-
0.
0/
00
01
b000 2
03
b000 4
05
06
07
08
09
0:
0;
0<
0=
0>
0?
0@
0A
0B
0C
0D
0E
0F
0G
0H
0I
b000 J
1K
0L
0M
b00000000000000000000000000001000 N
b00000000000000000000000000010000 O
b00000000000000000000000000100000 P
b00000000000000000000000000001010 Q
b00000000000000000000000000000000 R
#5000
16
#10000
06
#15000
16
#20000
06
#25000
16
#30000
06
#35000
16
#40000
06
#45000
16
#50000
06
#55000
16
#60000
06
#65000
16
#70000
06
#75000
16
#80000
06
#85000
16
#90000
06
#95000
16
#100000
06
#105000
16
#110000
06
#115000
16
17
#120000
06
#125000
16
#130000
06
#135000
16
#140000
06
#145000
16
#146000
18
b001 J
#150000
06
#155000
0#
b001 2
16
b010 J
#156000
08
#160000
06
#165000
1%
1&
1'
1(
1)
b010 2
16
#170000
06
#175000
0%
0&
0'
0(
0)
16
#176000
1;
1?
1B
1D
#180000
06
#185000
b001 $
1-
b001 4
15
16
0K
#190000
06
#195000
16
#196000
0?
#200000
06
#205000
16
#210000
06
#215000
16
#220000
06
#225000
16
#230000
06
#235000
16
#236000
1A
b101 J
1K
1L
#240000
06
#245000
b000 $
1+
0-
1.
b101 2
b000 4
16
0K
0L
#250000
06
#255000
0.
16
#256000
0;
0A
#260000
06
#265000
16
#270000
06
#275000
16
#280000
06
#285000
16
#290000
06
#295000
16
#296000
1>
1K
1L
#300000
06
#305000
b011 $
0+
10
b011 4
16
0K
0L
#306000
1@
b011 J
#310000
06
#315000
b011 2
16
#316000
0@
0D
#320000
06
#325000
16
#326000
1?
#330000
06
#335000
16
#340000
06
#345000
16
#350000
06
#355000
16
#356000
1E
1K
1L
#360000
06
#365000
b001 $
1-
00
b001 4
16
0K
0L
#370000
06
#375000
16
#376000
0?
#380000
06
#385000
16
#390000
06
#395000
16
#400000
06
#405000
16
#410000
06
#415000
16
#416000
1A
1K
1L
#420000
06
#425000
b010 $
0-
1/
b010 4
16
0K
0L
#430000
06
#435000
16
#436000
0B
#440000
06
#445000
16
#450000
06
#455000
16
#460000
06
#465000
16
#470000
06
#475000
16
#476000
1C
b110 J
1K
1L
#480000
06
#485000
1,
0/
b110 2
05
16
#490000
06
#495000
0,
16
#496000
0>
#500000
06
#505000
16
#510000
06
#515000
16
#520000
06
#525000
16
#530000
06
#535000
16
#540000
06
#545000
16
#546000
1<
b100 J
#550000
06
#555000
b100 2
16
#556000
0<
#560000
06
#565000
16
#566000
1;
#570000
06
#575000
b000 $
1+
b000 4
15
16
0K
0L
#580000
06
#585000
16
#586000
0;
#590000
06
#595000
16
#600000
06
#605000
16
#610000
06
#615000
16
#620000
06
#625000
16
#626000
1>
1K
1L
#630000
06
#635000
0+
05
16
#640000
06
#645000
16
#650000
06
#655000
16
#656000
1:
b010 J
#660000
06
#665000
b010 2
16
b101 J
#666000
0:
#670000
06
#675000
1.
b101 2
16
#680000
06
#685000
0.
16
#686000
0A
#690000
06
#695000
16
#700000
06
#705000
16
#710000
06
#715000
16
#720000
06
#725000
16
#730000
06
#735000
16
#736000
1@
b011 J
#740000
06
#745000
b011 2
16
b110 J
#746000
0@
#750000
06
#755000
1,
b110 2
16
#756000
1?
#760000
06
#765000
b001 $
0,
1-
b001 4
15
16
0K
0L
#766000
0>
#770000
06
#775000
16
#776000
0?
#780000
06
#785000
16
#790000
06
#795000
16
#800000
06
#805000
16
#810000
06
#815000
16
#816000
1<
1A
b100 J
1K
1L
#820000
06
#825000
0-
b100 2
05
16
#826000
0<
#830000
06
#835000
16
#836000
1;
#840000
06
#845000
b000 $
1+
b000 4
15
16
0K
0L
#850000
06
#855000
16
#856000
0;
#860000
06
#865000
16
#870000
06
#875000
16
#880000
06
#885000
16
#890000
06
#895000
16
#896000
1>
1K
1L
#900000
06
#905000
0+
05
16
#910000
06
#915000
16
#920000
06
#925000
16
#926000
1:
b010 J
#930000
06
#935000
b010 2
16
b101 J
#936000
0:
#940000
06
#945000
1.
b101 2
16
#950000
06
#955000
0.
16
#956000
0A
#960000
06
#965000
16
#970000
06
#975000
16
#980000
06
#985000
16
#990000
06
#995000
16
#1000000
06
#1005000
16
#1006000
1@
b011 J
#1010000
06
#1015000
b011 2
16
b110 J
#1016000
0@
#1020000
06
#1025000
1,
b110 2
16
#1026000
1?
#1030000
06
#1035000
b001 $
0,
1-
b001 4
15
16
0K
0L
#1036000
0>
#1040000
06
#1045000
16
#1046000
0?
#1050000
06
#1055000
16
#1060000
06
#1065000
16
#1070000
06
#1075000
16
#1080000
06
#1085000
16
#1086000
1<
1A
b100 J
1K
1L
#1090000
06
#1095000
0-
b100 2
05
16
#1096000
0<
#1100000
06
#1105000
16
#1106000
1;
#1110000
06
#1115000
b000 $
1+
b000 4
15
16
0K
0L
#1120000
06
#1125000
16
#1126000
0;
#1130000
06
#1135000
16
#1140000
06
#1145000
16
#1150000
06
#1155000
16
#1160000
06
#1165000
16
#1166000
1>
1K
1L
#1170000
06
#1175000
0+
05
16
#1180000
06
#1185000
16
#1190000
06
#1195000
16
#1196000
1:
b010 J
#1200000
06
#1205000
b010 2
16
b101 J
#1206000
0:
#1210000
06
#1215000
1.
b101 2
16
#1220000
06
#1225000
0.
16
#1226000
0A
#1230000
06
#1235000
16
#1240000
06
#1245000
16
#1250000
06
#1255000
16
#1260000
06
#1265000
16
#1270000
06
#1275000
16
#1276000
1@
b011 J
#1280000
06
#1285000
b011 2
16
b110 J
#1286000
0@
#1290000
06
#1295000
1,
b110 2
16
#1296000
1?
#1300000
06
#1305000
b001 $
0,
1-
b001 4
15
16
0K
0L
#1306000
0>
#1310000
06
#1315000
16
#1316000
0?
#1320000
06
#1325000
16
#1330000
06
#1335000
16
#1340000
06
#1345000
16
#1350000
06
#1355000
16
#1356000
1<
1A
b100 J
1K
1L
#1360000
06
#1365000
0-
b100 2
05
16
#1366000
0<
#1370000
06
#1375000
16
#1376000
1;
#1380000
06
#1385000
b000 $
1+
b000 4
15
16
0K
0L
#1390000
06
#1395000
16
#1396000
0;
#1400000
06
#1405000
16
#1410000
06
#1415000
16
#1420000
06
#1425000
16
#1430000
06
#1435000
16
#1436000
1>
1K
1L
#1440000
06
#1445000
0+
05
16
#1450000
06
#1455000
16
#1460000
06
#1465000
16
#1466000
1:
b010 J
1M
#1470000
06
#1475000
b010 2
16
b101 J
#1476000
0:
0M
#1480000
06
#1485000
1.
b101 2
16
#1486000
0C
0E
1G
#1490000
06
#1495000
b100 $
0.
11
b100 4
15
16
0K
0L
#1496000
0A
1B
1D
#1500000
06
#1505000
16
#1506000
0G
#1510000
06
#1515000
16
#1520000
06
#1525000
16
#1530000
06
#1535000
16
#1540000
06
#1545000
16
#1546000
1@
b011 J
#1550000
06
#1555000
b011 2
16
#1556000
0@
#1560000
06
#1565000
16
#1566000
1?
#1570000
06
#1575000
16
#1580000
06
#1585000
16
#1590000
06
#1595000
16
#1600000
06
#1605000
16
#1606000
1H
1K
1L
#1610000
06
#1615000
b001 $
1-
01
b001 4
16
0K
0L
#1616000
0H
#1620000
06
#1625000
16
#1626000
0?
#1630000
06
#1635000
16
#1640000
06
#1645000
16
#1650000
06
#1655000
16
#1660000
06
#1665000
16
#1666000
1A
1K
1L
#1670000
06
#1675000
b011 $
0-
10
b011 4
16
0K
0L
#1680000
06
#1685000
16
#1686000
0D
#1690000
06
#1695000
16
#1700000
06
#1705000
16
#1710000
06
#1715000
16
#1720000
06
#1725000
16
#1726000
1E
1K
1L
#1730000
06
#1735000
b010 $
1/
00
b010 4
16
0K
0L
#1740000
06
#1745000
16
#1746000
0B
#1750000
06
#1755000
16
#1760000
06
#1765000
16
#1770000
06
#1775000
16
#1780000
06
#1785000
16
#1786000
1C
b110 J
1K
1L
#1790000
06
#1795000
1,
0/
b110 2
05
16
#1800000
06
#1805000
0,
16
#1806000
0>
#1810000
06
#1815000
16
#1820000
06
#1825000
16
#1830000
06
#1835000
16
#1840000
06
#1845000
16
#1850000
06
#1855000
16
#1856000
1<
b100 J
#1860000
06
#1865000
b100 2
16
#1866000
0<
#1870000
06
#1875000
16
#1876000
1;
#1880000
06
#1885000
b000 $
1+
b000 4
15
16
0K
0L
#1890000
06
#1895000
16
#1896000
0;
#1900000
06
#1905000
16
#1910000
06
#1915000
16
#1920000
06
#1925000
16
#1930000
06
#1935000
16
#1936000
1>
1K
1L
#1940000
06
#1945000
0+
05
16
#1950000
06
#1955000
16
#1960000
06
#1965000
16
#1966000
1:
b010 J
#1970000
06
#1975000
b010 2
16
b101 J
#1976000
0:
#1980000
06
#1985000
1.
b101 2
16
#1990000
06
#1995000
0.
16
#1996000
0A
#2000000
06
#2005000
16
#2010000
06
#2015000
16
#2020000
06
#2025000
16
#2030000
06
#2035000
16
#2040000
06
#2045000
16
#2046000
1@
b011 J
#2050000
06
#2055000
b011 2
16
b110 J
#2056000
0@
#2060000
06
#2065000
1,
b110 2
16
#2066000
1?
#2070000
06
#2075000
b001 $
0,
1-
b001 4
15
16
0K
0L
#2076000
0>
#2080000
06
#2085000
16
#2086000
0?
#2090000
06
#2095000
16
#2100000
06
#2105000
16
#2110000
06
#2115000
16
#2120000
06
#2125000
16
#2126000
1<
1A
b100 J
1K
1L
#2130000
06
#2135000
0-
b100 2
05
16
#2136000
0<
#2140000
06
#2145000
16
#2146000
1;
#2150000
06
#2155000
b000 $
1+
b000 4
15
16
0K
0L
#2160000
06
#2165000
16
#2166000
0;
#2170000
06
#2175000
16
#2180000
06
#2185000
16
#2190000
06
#2195000
16
#2200000
06
#2205000
16
#2206000
1>
1K
1L
#2210000
06
#2215000
0+
05
16
#2220000
06
#2225000
16
#2230000
06
#2235000
16
#2236000
1:
b010 J
#2240000
06
#2245000
b010 2
16
b101 J
#2246000
0:
#2250000
06
#2255000
1.
b101 2
16
#2260000
06
#2265000
0.
16
#2266000
0A
#2270000
06
#2275000
16
#2280000
06
#2285000
16
#2290000
06
#2295000
16
#2300000
06
#2305000
16
#2310000
06
#2315000
16
#2316000
1@
b011 J
#2320000
06
#2325000
b011 2
16
b110 J
#2326000
0@
#2330000
06
#2335000
1,
b110 2
16
#2336000
1?
#2340000
06
#2345000
b001 $
0,
1-
b001 4
15
16
0K
0L
#2346000
0>
#2350000
06
#2355000
16
#2356000
0?
#2360000
06
#2365000
16
#2370000
06
#2375000
16
#2380000
06
#2385000
16
#2390000
06
#2395000
16
#2396000
1<
1A
b100 J
1K
1L
#2400000
06
#2405000
0-
b100 2
05
16
#2406000
0<
#2410000
06
#2415000
16
#2416000
1;
#2420000
06
#2425000
b000 $
1+
b000 4
15
16
0K
0L
#2430000
06
#2435000
16
#2436000
0;
#2440000
06
#2445000
16
#2450000
06
#2455000
16
#2460000
06
#2465000
16
#2470000
06
#2475000
16
#2476000
1>
1K
1L
#2480000
06
#2485000
0+
05
16
#2490000
06
#2495000
16
#2500000
06
#2505000
16
#2506000
1:
b010 J
#2510000
06
#2515000
b010 2
16
b101 J
#2516000
0:
#2520000
06
#2525000
1.
b101 2
16
#2530000
06
#2535000
0.
16
#2536000
0A
#2540000
06
#2545000
16
#2550000
06
#2555000
16
#2560000
06
#2565000
16
#2570000
06
#2575000
16
#2580000
06
#2585000
16
#2586000
1@
b011 J
#2590000
06
#2595000
b011 2
16
b110 J
#2596000
0@
#2600000
06
#2605000
1,
b110 2
16
#2606000
1?
#2610000
06
#2615000
b001 $
0,
1-
b001 4
15
16
0K
0L
#2616000
0>
#2620000
06
#2625000
16
#2626000
0?
#2630000
06
#2635000
16
#2640000
06
#2645000
16
#2650000
06
#2655000
16
#2660000
06
#2665000
16
#2666000
1<
1A
b100 J
1K
1L
#2670000
06
#2675000
0-
b100 2
05
16
#2676000
0<
#2680000
06
#2685000
16
#2686000
1;
#2690000
06
#2695000
b000 $
1+
b000 4
15
16
0K
0L
#2700000
06
#2705000
16
#2706000
0;
#2710000
06
#2715000
16
#2720000
06
#2725000
16
#2730000
06
#2735000
16
#2740000
06
#2745000
16
#2746000
1>
1K
1L
#2750000
06
#2755000
0+
05
16
#2760000
06
#2765000
16
#2770000
06
#2775000
16
#2776000
1:
b010 J
1M
#2780000
06
#2785000
b010 2
16
b101 J
#2786000
0:
0M
#2790000
06
#2795000
1.
b101 2
16
#2796000
0C
0E
1G
#2800000
06
#2805000
b100 $
0.
11
b100 4
15
16
0K
0L
#2806000
0A
1B
1D
#2810000
06
#2815000
16
#2816000
0G
#2820000
06
#2825000
16
#2830000
06
#2835000
16
#2840000
06
#2845000
16
#2850000
06
#2855000
16
#2856000
1@
b011 J
#2860000
06
#2865000
b011 2
16
#2866000
0@
#2870000
06
#2875000
16
#2876000
1?
#2880000
06
#2885000
16
#2890000
06
#2895000
16
#2900000
06
#2905000
16
#2910000
06
#2915000
16
#2916000
1H
1K
1L
#2920000
06
#2925000
b001 $
1-
01
b001 4
16
0K
0L
#2926000
0H
#2930000
06
#2935000
16
#2936000
0?
#2940000
06
#2945000
16
#2950000
06
#2955000
16
#2960000
06
#2965000
16
#2970000
06
#2975000
16
#2976000
1A
1K
1L
#2980000
06
#2985000
b011 $
0-
10
b011 4
16
0K
0L
#2990000
06
#2995000
16
#2996000
0D
#3000000
06
#3005000
16
#3010000
06
#3015000
16
#3020000
06
#3025000
16
#3030000
06
#3035000
16
#3036000
1E
1K
1L
#3040000
06
#3045000
b010 $
1/
00
b010 4
16
0K
0L
#3050000
06
#3055000
16
#3056000
0B
#3060000
06
#3065000
16
#3070000
06
#3075000
16
#3080000
06
#3085000
16
#3090000
06
#3095000
16
#3096000
1C
b110 J
1K
1L
#3100000
06
#3105000
1,
0/
b110 2
05
16
#3110000
06
#3115000
0,
16
#3116000
0>
#3120000
06
#3125000
16
#3130000
06
#3135000
16
#3140000
06
#3145000
16
#3150000
06
#3155000
16
#3160000
06
#3165000
16
#3166000
1<
b100 J
#3170000
06
#3175000
b100 2
16
#3176000
0<
#3180000
06
#3185000
16
#3186000
1;
#3190000
06
#3195000
b000 $
1+
b000 4
15
16
0K
0L
#3200000
06
#3205000
16
#3206000
0;
#3210000
06
#3215000
16
#3220000
06
#3225000
16
#3230000
06
#3235000
16
#3240000
06
#3245000
16
#3246000
1>
1K
1L
#3250000
06
#3255000
0+
05
16
#3260000
06
#3265000
16
#3270000
06
#3275000
16
#3276000
1:
b010 J
#3280000
06
#3285000
b010 2
16
b101 J
#3286000
0:
#3290000
06
#3295000
1.
b101 2
16
#3300000
06
#3305000
0.
16
#3306000
0A
#3310000
06
#3315000
16
#3320000
06
#3325000
16
#3330000
06
#3335000
16
#3340000
06
#3345000
16
#3350000
06
#3355000
16
#3356000
1@
b011 J
#3360000
06
#3365000
b011 2
16
b110 J
#3366000
0@
#3370000
06
#3375000
1,
b110 2
16
#3376000
1?
#3380000
06
#3385000
b001 $
0,
1-
b001 4
15
16
0K
0L
#3386000
0>
#3390000
06
#3395000
16
#3396000
0?
#3400000
06
#3405000
16
#3410000
06
#3415000
16
#3420000
06
#3425000
16
#3430000
06
#3435000
16
#3436000
1<
1A
b100 J
1K
1L
#3440000
06
#3445000
0-
b100 2
05
16
#3446000
0<
#3450000
06
#3455000
16
#3456000
1;
#3460000
06
#3465000
b000 $
1+
b000 4
15
16
0K
0L
#3470000
06
#3475000
16
#3476000
0;
#3480000
06
#3485000
16
#3490000
06
#3495000
16
#3500000
06
#3505000
16
#3510000
06
#3515000
16
#3516000
1>
1K
1L
#3520000
06
#3525000
0+
05
16
#3530000
06
#3535000
16
#3540000
06
#3545000
16
#3546000
1:
b010 J
#3550000
06
#3555000
b010 2
16
b101 J
#3556000
0:
#3560000
06
#3565000
1.
b101 2
16
#3570000
06
#3575000
0.
16
#3576000
0A
#3580000
06
#3585000
16
#3590000
06
#3595000
16
#3600000
06
#3605000
16
#3610000
06
#3615000
16
#3620000
06
#3625000
16
#3626000
1@
b011 J
#3630000
06
#3635000
b011 2
16
b110 J
#3636000
0@
#3640000
06
#3645000
1,
b110 2
16
#3646000
1?
#3650000
06
#3655000
b001 $
0,
1-
b001 4
15
16
0K
0L
#3656000
0>
#3660000
06
#3665000
16
#3666000
0?
#3670000
06
#3675000
16
#3680000
06
#3685000
16
#3690000
06
#3695000
16
#3700000
06
#3705000
16
#3706000
1<
1A
b100 J
1K
1L
#3710000
06
#3715000
0-
b100 2
05
16
#3716000
0<
#3720000
06
#3725000
16
#3726000
1;
#3730000
06
#3735000
b000 $
1+
b000 4
15
16
0K
0L
#3740000
06
#3745000
16
#3746000
0;
#3750000
06
#3755000
16
#3760000
06
#3765000
16
#3770000
06
#3775000
16
#3780000
06
#3785000
16
#3786000
1>
1K
1L
#3790000
06
#3795000
0+
05
16
#3800000
06
#3805000
16
#3810000
06
#3815000
16
#3816000
1:
b010 J
#3820000
06
#3825000
b010 2
16
b101 J
#3826000
0:
#3830000
06
#3835000
1.
b101 2
16
#3840000
06
#3845000
0.
16
#3846000
0A
#3850000
06
#3855000
16
#3860000
06
#3865000
16
#3870000
06
#3875000
16
#3880000
06
#3885000
16
#3890000
06
#3895000
16
#3896000
1@
b011 J
#3900000
06
#3905000
b011 2
16
b110 J
#3906000
0@
#3910000
06
#3915000
1,
b110 2
16
#3916000
1?
#3920000
06
#3925000
b001 $
0,
1-
b001 4
15
16
0K
0L
#3926000
0>
#3930000
06
#3935000
16
#3936000
0?
#3940000
06
#3945000
16
#3950000
06
#3955000
16
#3960000
06
#3965000
16
#3970000
06
#3975000
16
#3976000
1<
1A
b100 J
1K
1L
#3980000
06
#3985000
0-
b100 2
05
16
#3986000
0<
#3990000
06
#3995000
16
#3996000
1;
#4000000
06
#4005000
b000 $
1+
b000 4
15
16
0K
0L
#4010000
06
#4015000
16
#4016000
0;
#4020000
06
#4025000
16
#4030000
06
#4035000
16
#4040000
06
#4045000
16
#4050000
06
#4055000
16
#4056000
1>
1K
1L
#4060000
06
#4065000
0+
05
16
#4070000
06
#4075000
16
#4080000
06
#4085000
16
#4086000
1:
b010 J
1M
#4090000
06
#4095000
b010 2
16
b101 J
#4096000
0:
0M
#4100000
06
#4105000
1.
b101 2
16
#4106000
0C
0E
1G
#4110000
06
#4115000
b100 $
0.
11
b100 4
15
16
0K
0L
#4116000
0A
1B
1D
#4120000
06
#4125000
16
#4126000
0G
#4130000
06
#4135000
16
#4140000
06
#4145000
16
#4150000
06
#4155000
16
#4160000
06
#4165000
16
#4166000
1@
b011 J
#4170000
06
#4175000
b011 2
16
#4176000
0@
#4180000
06
#4185000
16
#4186000
1?
#4190000
06
#4195000
16
#4200000
06
#4205000
16
#4210000
06
#4215000
16
#4220000
06
#4225000
16
#4226000
1H
1K
1L
#4230000
06
#4235000
b001 $
1-
01
b001 4
16
0K
0L
#4236000
0H
#4240000
06
#4245000
16
#4246000
0?
#4250000
06
#4255000
16
#4260000
06
#4265000
16
#4270000
06
#4275000
16
#4280000
06
#4285000
16
#4286000
1A
1K
1L
#4290000
06
#4295000
b011 $
0-
10
b011 4
16
0K
0L
#4300000
06
#4305000
16
#4306000
0D
#4310000
06
#4315000
16
#4320000
06
#4325000
16
#4330000
06
#4335000
16
#4340000
06
#4345000
16
#4346000
1E
1K
1L
#4350000
06
#4355000
b010 $
1/
00
b010 4
16
0K
0L
#4360000
06
#4365000
16
#4366000
0B
#4370000
06
#4375000
16
#4380000
06
#4385000
16
#4390000
06
#4395000
16
#4400000
06
#4405000
16
#4406000
1C
b110 J
1K
1L
#4410000
06
#4415000
1,
0/
b110 2
05
16
#4420000
06
#4425000
0,
16
#4426000
0>
#4430000
06
#4435000
16
#4440000
06
#4445000
16
#4450000
06
#4455000
16
#4460000
06
#4465000
16
#4470000
06
#4475000
16
#4476000
1<
b100 J
#4480000
06
#4485000
b100 2
16
#4486000
0<
#4490000
06
#4495000
16
#4496000
1;
#4500000
06
#4505000
b000 $
1+
b000 4
15
16
0K
0L
#4510000
06
#4515000
16
#4516000
0;
#4520000
06
#4525000
16
#4530000
06
#4535000
16
#4540000
06
#4545000
16
#4550000
06
#4555000
16
#4556000
1>
1K
1L
#4560000
06
#4565000
0+
05
16
#4570000
06
#4575000
16
#4580000
06
#4585000
16
#4586000
1:
b010 J
#4590000
06
#4595000
b010 2
16
b101 J
#4596000
0:
#4600000
06
#4605000
1.
b101 2
16
#4610000
06
#4615000
0.
16
#4616000
0A
#4620000
06
#4625000
16
#4630000
06
#4635000
16
#4640000
06
#4645000
16
#4650000
06
#4655000
16
#4660000
06
#4665000
16
#4666000
1@
b011 J
#4670000
06
#4675000
b011 2
16
b110 J
#4676000
0@
#4680000
06
#4685000
1,
b110 2
16
#4686000
1?
#4690000
06
#4695000
b001 $
0,
1-
b001 4
15
16
0K
0L
#4696000
0>
#4700000
06
#4705000
16
#4706000
0?
#4710000
06
#4715000
16
#4720000
06
#4725000
16
#4730000
06
#4735000
16
#4740000
06
#4745000
16
#4746000
1<
1A
b100 J
1K
1L
#4750000
06
#4755000
0-
b100 2
05
16
#4756000
0<
#4760000
06
#4765000
16
#4766000
1;
#4770000
06
#4775000
b000 $
1+
b000 4
15
16
0K
0L
#4780000
06
#4785000
16
#4786000
0;
#4790000
06
#4795000
16
#4800000
06
#4805000
16
#4810000
06
#4815000
16
#4820000
06
#4825000
16
#4826000
1>
1K
1L
#4830000
06
#4835000
0+
05
16
#4840000
06
#4845000
16
#4850000
06
#4855000
16
#4856000
1:
b010 J
#4860000
06
#4865000
b010 2
16
b101 J
#4866000
0:
#4870000
06
#4875000
1.
b101 2
16
#4880000
06
#4885000
0.
16
#4886000
0A
#4890000
06
#4895000
16
#4900000
06
#4905000
16
#4910000
06
#4915000
16
#4920000
06
#4925000
16
#4930000
06
#4935000
16
#4936000
1@
b011 J
#4940000
06
#4945000
b011 2
16
b110 J
#4946000
0@
#4950000
06
#4955000
1,
b110 2
16
#4956000
1?
#4960000
06
#4965000
b001 $
0,
1-
b001 4
15
16
0K
0L
#4966000
0>
#4970000
06
#4975000
16
#4976000
0?
#4980000
06
#4985000
16
#4990000
06
#4995000
16
#5000000
06
#5005000
16
#5010000
06
#5015000
16
#5016000
1<
1A
b100 J
1K
1L
#5020000
06
#5025000
0-
b100 2
05
16
#5026000
0<
#5030000
06
#5035000
16
#5036000
1;
#5040000
06
#5045000
b000 $
1+
b000 4
15
16
0K
0L
#5050000
06
#5055000
16
#5056000
0;
#5060000
06
#5065000
16
#5070000
06
#5075000
16
#5080000
06
#5085000
16
#5090000
06
#5095000
16
#5096000
1>
1K
1L
#5100000
06
#5105000
0+
05
16
#5110000
06
#5115000
16
#5120000
06
#5125000
16
#5126000
1:
b010 J
#5130000
06
#5135000
b010 2
16
b101 J
#5136000
0:
#5140000
06
#5145000
1.
b101 2
16
#5150000
06
#5155000
0.
16
#5156000
0A
#5160000
06
#5165000
16
#5170000
06
#5175000
16
#5180000
06
#5185000
16
#5190000
06
#5195000
16
#5200000
06
#5205000
16
#5206000
1@
b011 J
#5210000
06
#5215000
b011 2
16
b110 J
#5220000
06
#5225000
1,
b110 2
16
#5230000
06
#5235000
0,
16
#5236000
0>
0L
#5240000
06
#5245000
16
#5250000
06
#5255000
16
#5260000
06
#5265000
16
#5270000
06
#5275000
16
#5280000
06
#5285000
16
#5286000
1<
b100 J
#5290000
06
#5295000
b100 2
16
#5300000
06
#5305000
16
#5310000
06
#5315000
16
#5320000
06
#5325000
16
#5330000
06
#5335000
16
#5340000
06
#5345000
16
#5350000
06
#5355000
16
#5360000
06
#5365000
16
#5370000
06
#5375000
16
#5380000
06
#5385000
16
#5390000
06
#5395000
16
#5396000
1:
b010 J
1M
#5400000
06
#5405000
b010 2
16
#5406000
0:
0M
#5410000
06
#5415000
16
#5416000
0C
0E
1G
#5420000
06
#5425000
b100 $
11
b100 4
15
16
0K
#5430000
06
#5435000
16
#5436000
0G
#5440000
06
#5445000
16
#5450000
06
#5455000
16
#5460000
06
#5465000
16
#5470000
06
#5475000
16
#5480000
06
#5485000
16
#5490000
06
#5495000
16
#5500000
06
#5505000
16
#5510000
06
#5515000
16
#5520000
06
#5525000
16
#5530000
06
#5535000
16
#5536000
1H
1K
1L
#5540000
06
#5545000
01
05
16
#5546000
0H
0L
#5550000
06
#5555000
16
#5556000
1I
b000 J
#5560000
06
#5565000
1#
b000 2
16
#5566000
0I
