test/sim/sim.sim/sim_1/behav/xsim/wave.vcd
$date
   Wed Oct  1 21:10:53 2025
$end

$version
  2024.2.1
  $dumpfile ("wave.vcd") 
$end

$timescale
  1ps
$end

$scope module tb_compute_core $end
$var reg 1 ! clk $end
$var reg 1 " store_weight_req $end
$var reg 1 # ia_row_valid $end
$var reg 1 $ ia_calc_done $end
$var reg 1 % ia_is_init_data $end
$var wire 1 & acc_data_valid $end
$var wire 1 ' tile_calc_over $end
$var wire 1 ( partial_sum_calc_over $end
$var integer 32 ) out_rows [31:0] $end
$var integer 32 * errors [31:0] $end
$var integer 32 + idx [31:0] $end
$var integer 32 , NUM_K [31:0] $end
$var integer 32 - NUM_SEG [31:0] $end
$var reg 1 . store_weight_req_reg $end
$var reg 1 / ia_row_valid_reg $end
$var reg 1 0 ia_calc_done_reg $end
$var reg 1 1 ia_is_init_data_reg $end
$scope begin Block60_2 $end
$var reg 32 2 i [31:0] $end
$upscope $end
$scope module u_dut $end
$var wire 1 3 clk $end
$var wire 1 4 store_weight_req $end
$var wire 1 5 ia_row_valid $end
$var wire 1 6 ia_calc_done $end
$var wire 1 7 ia_is_init_data $end
$var wire 1 & acc_data_valid $end
$var wire 1 ' tile_calc_over $end
$var wire 1 ( partial_sum_calc_over $end
$var wire 1 8 data_setup_input_valid $end
$var wire 1 9 data_setup_calc_done $end
$var wire 1 : data_setup_is_init_data $end
$scope module u_data_setup $end
$var wire 1 3 clk $end
$var wire 1 5 input_valid_i $end
$var wire 1 6 calc_done_i $end
$var wire 1 7 is_init_data_i $end
$var wire 1 8 input_valid_o $end
$var wire 1 9 calc_done_o $end
$var wire 1 : is_init_data_o $end
$var reg 16 ; \genblk1.gen_shift_chain[1].gen_delay_1.shift_reg  [15:0] $end
$var integer 32 < \genblk1.gen_shift_chain[2].gen_delay_n.k  [31:0] $end
$var integer 32 = \genblk1.gen_shift_chain[3].gen_delay_n.k  [31:0] $end
$scope begin Block53_7 $end
$var integer 32 > m [31:0] $end
$upscope $end
$upscope $end
$scope module u_systolic_array $end
$var wire 1 3 clk $end
$var wire 1 4 store_weight_req $end
$scope module gen_row[0].gen_col[0].ws_cell $end
$var wire 1 3 clk $end
$var wire 1 4 store_weight_req $end
$var wire 8 ? weight_in [7:0] $end
$var wire 16 @ data_in [15:0] $end
$var wire 32 A sum_in [31:0] $end
$var wire 16 B data_out [255:240] $end
$var wire 8 C weight_out [127:120] $end
$var wire 32 D sum_out [511:480] $end
$var reg 16 E data_reg [15:0] $end
$var reg 8 F weight_reg [7:0] $end
$var reg 32 G sum_reg [31:0] $end
$var wire 32 H mult_result [31:0] $end
$var wire 33 I sum_ext [32:0] $end
$upscope $end
$scope module gen_row[0].gen_col[1].ws_cell $end
$var wire 1 3 clk $end
$var wire 1 4 store_weight_req $end
$var wire 8 J weight_in [7:0] $end
$var wire 16 K data_in [15:0] $end
$var wire 32 L sum_in [31:0] $end
$var wire 16 M data_out [239:224] $end
$var wire 8 N weight_out [119:112] $end
$var wire 32 O sum_out [479:448] $end
$var reg 16 P data_reg [15:0] $end
$var reg 8 Q weight_reg [7:0] $end
$var reg 32 R sum_reg [31:0] $end
$var wire 32 S mult_result [31:0] $end
$var wire 33 T sum_ext [32:0] $end
$upscope $end
$scope module gen_row[0].gen_col[2].ws_cell $end
$var wire 1 3 clk $end
$var wire 1 4 store_weight_req $end
$var wire 8 U weight_in [7:0] $end
$var wire 16 V data_in [15:0] $end
$var wire 32 W sum_in [31:0] $end
$var wire 16 X data_out [223:208] $end
$var wire 8 Y weight_out [111:104] $end
$var wire 32 Z sum_out [447:416] $end
$var reg 16 [ data_reg [15:0] $end
$var reg 8 \ weight_reg [7:0] $end
$var reg 32 ] sum_reg [31:0] $end
$var wire 32 ^ mult_result [31:0] $end
$var wire 33 _ sum_ext [32:0] $end
$upscope $end
$scope module gen_row[0].gen_col[3].ws_cell $end
$var wire 1 3 clk $end
$var wire 1 4 store_weight_req $end
$var wire 8 ` weight_in [7:0] $end
$var wire 16 a data_in [15:0] $end
$var wire 32 b sum_in [31:0] $end
$var wire 16 c data_out [207:192] $end
$var wire 8 d weight_out [103:96] $end
$var wire 32 e sum_out [415:384] $end
$var reg 16 f data_reg [15:0] $end
$var reg 8 g weight_reg [7:0] $end
$var reg 32 h sum_reg [31:0] $end
$var wire 32 i mult_result [31:0] $end
$var wire 33 j sum_ext [32:0] $end
$upscope $end
$scope module gen_row[1].gen_col[0].ws_cell $end
$var wire 1 3 clk $end
$var wire 1 4 store_weight_req $end
$var wire 8 k weight_in [7:0] $end
$var wire 16 l data_in [15:0] $end
$var wire 32 m sum_in [31:0] $end
$var wire 16 n data_out [191:176] $end
$var wire 8 o weight_out [95:88] $end
$var wire 32 p sum_out [383:352] $end
$var reg 16 q data_reg [15:0] $end
$var reg 8 r weight_reg [7:0] $end
$var reg 32 s sum_reg [31:0] $end
$var wire 32 t mult_result [31:0] $end
$var wire 33 u sum_ext [32:0] $end
$upscope $end
$scope module gen_row[1].gen_col[1].ws_cell $end
$var wire 1 3 clk $end
$var wire 1 4 store_weight_req $end
$var wire 8 v weight_in [7:0] $end
$var wire 16 w data_in [15:0] $end
$var wire 32 x sum_in [31:0] $end
$var wire 16 y data_out [175:160] $end
$var wire 8 z weight_out [87:80] $end
$var wire 32 { sum_out [351:320] $end
$var reg 16 | data_reg [15:0] $end
$var reg 8 } weight_reg [7:0] $end
$var reg 32 ~ sum_reg [31:0] $end
$var wire 32 !! mult_result [31:0] $end
$var wire 33 "! sum_ext [32:0] $end
$upscope $end
$scope module gen_row[1].gen_col[2].ws_cell $end
$var wire 1 3 clk $end
$var wire 1 4 store_weight_req $end
$var wire 8 #! weight_in [7:0] $end
$var wire 16 $! data_in [15:0] $end
$var wire 32 %! sum_in [31:0] $end
$var wire 16 &! data_out [159:144] $end
$var wire 8 '! weight_out [79:72] $end
$var wire 32 (! sum_out [319:288] $end
$var reg 16 )! data_reg [15:0] $end
$var reg 8 *! weight_reg [7:0] $end
$var reg 32 +! sum_reg [31:0] $end
$var wire 32 ,! mult_result [31:0] $end
$var wire 33 -! sum_ext [32:0] $end
$upscope $end
$scope module gen_row[1].gen_col[3].ws_cell $end
$var wire 1 3 clk $end
$var wire 1 4 store_weight_req $end
$var wire 8 .! weight_in [7:0] $end
$var wire 16 /! data_in [15:0] $end
$var wire 32 0! sum_in [31:0] $end
$var wire 16 1! data_out [143:128] $end
$var wire 8 2! weight_out [71:64] $end
$var wire 32 3! sum_out [287:256] $end
$var reg 16 4! data_reg [15:0] $end
$var reg 8 5! weight_reg [7:0] $end
$var reg 32 6! sum_reg [31:0] $end
$var wire 32 7! mult_result [31:0] $end
$var wire 33 8! sum_ext [32:0] $end
$upscope $end
$scope module gen_row[2].gen_col[0].ws_cell $end
$var wire 1 3 clk $end
$var wire 1 4 store_weight_req $end
$var wire 8 9! weight_in [7:0] $end
$var wire 16 :! data_in [15:0] $end
$var wire 32 ;! sum_in [31:0] $end
$var wire 16 <! data_out [127:112] $end
$var wire 8 =! weight_out [63:56] $end
$var wire 32 >! sum_out [255:224] $end
$var reg 16 ?! data_reg [15:0] $end
$var reg 8 @! weight_reg [7:0] $end
$var reg 32 A! sum_reg [31:0] $end
$var wire 32 B! mult_result [31:0] $end
$var wire 33 C! sum_ext [32:0] $end
$upscope $end
$scope module gen_row[2].gen_col[1].ws_cell $end
$var wire 1 3 clk $end
$var wire 1 4 store_weight_req $end
$var wire 8 D! weight_in [7:0] $end
$var wire 16 E! data_in [15:0] $end
$var wire 32 F! sum_in [31:0] $end
$var wire 16 G! data_out [111:96] $end
$var wire 8 H! weight_out [55:48] $end
$var wire 32 I! sum_out [223:192] $end
$var reg 16 J! data_reg [15:0] $end
$var reg 8 K! weight_reg [7:0] $end
$var reg 32 L! sum_reg [31:0] $end
$var wire 32 M! mult_result [31:0] $end
$var wire 33 N! sum_ext [32:0] $end
$upscope $end
$scope module gen_row[2].gen_col[2].ws_cell $end
$var wire 1 3 clk $end
$var wire 1 4 store_weight_req $end
$var wire 8 O! weight_in [7:0] $end
$var wire 16 P! data_in [15:0] $end
$var wire 32 Q! sum_in [31:0] $end
$var wire 16 R! data_out [95:80] $end
$var wire 8 S! weight_out [47:40] $end
$var wire 32 T! sum_out [191:160] $end
$var reg 16 U! data_reg [15:0] $end
$var reg 8 V! weight_reg [7:0] $end
$var reg 32 W! sum_reg [31:0] $end
$var wire 32 X! mult_result [31:0] $end
$var wire 33 Y! sum_ext [32:0] $end
$upscope $end
$scope module gen_row[2].gen_col[3].ws_cell $end
$var wire 1 3 clk $end
$var wire 1 4 store_weight_req $end
$var wire 8 Z! weight_in [7:0] $end
$var wire 16 [! data_in [15:0] $end
$var wire 32 \! sum_in [31:0] $end
$var wire 16 ]! data_out [79:64] $end
$var wire 8 ^! weight_out [39:32] $end
$var wire 32 _! sum_out [159:128] $end
$var reg 16 `! data_reg [15:0] $end
$var reg 8 a! weight_reg [7:0] $end
$var reg 32 b! sum_reg [31:0] $end
$var wire 32 c! mult_result [31:0] $end
$var wire 33 d! sum_ext [32:0] $end
$upscope $end
$scope module gen_row[3].gen_col[0].ws_cell $end
$var wire 1 3 clk $end
$var wire 1 4 store_weight_req $end
$var wire 8 e! weight_in [7:0] $end
$var wire 16 f! data_in [15:0] $end
$var wire 32 g! sum_in [31:0] $end
$var wire 16 h! data_out [63:48] $end
$var wire 8 i! weight_out [31:24] $end
$var wire 32 j! sum_out [127:96] $end
$var reg 16 k! data_reg [15:0] $end
$var reg 8 l! weight_reg [7:0] $end
$var reg 32 m! sum_reg [31:0] $end
$var wire 32 n! mult_result [31:0] $end
$var wire 33 o! sum_ext [32:0] $end
$upscope $end
$scope module gen_row[3].gen_col[1].ws_cell $end
$var wire 1 3 clk $end
$var wire 1 4 store_weight_req $end
$var wire 8 p! weight_in [7:0] $end
$var wire 16 q! data_in [15:0] $end
$var wire 32 r! sum_in [31:0] $end
$var wire 16 s! data_out [47:32] $end
$var wire 8 t! weight_out [23:16] $end
$var wire 32 u! sum_out [95:64] $end
$var reg 16 v! data_reg [15:0] $end
$var reg 8 w! weight_reg [7:0] $end
$var reg 32 x! sum_reg [31:0] $end
$var wire 32 y! mult_result [31:0] $end
$var wire 33 z! sum_ext [32:0] $end
$upscope $end
$scope module gen_row[3].gen_col[2].ws_cell $end
$var wire 1 3 clk $end
$var wire 1 4 store_weight_req $end
$var wire 8 {! weight_in [7:0] $end
$var wire 16 |! data_in [15:0] $end
$var wire 32 }! sum_in [31:0] $end
$var wire 16 ~! data_out [31:16] $end
$var wire 8 !" weight_out [15:8] $end
$var wire 32 "" sum_out [63:32] $end
$var reg 16 #" data_reg [15:0] $end
$var reg 8 $" weight_reg [7:0] $end
$var reg 32 %" sum_reg [31:0] $end
$var wire 32 &" mult_result [31:0] $end
$var wire 33 '" sum_ext [32:0] $end
$upscope $end
$scope module gen_row[3].gen_col[3].ws_cell $end
$var wire 1 3 clk $end
$var wire 1 4 store_weight_req $end
$var wire 8 (" weight_in [7:0] $end
$var wire 16 )" data_in [15:0] $end
$var wire 32 *" sum_in [31:0] $end
$var wire 16 +" data_out [15:0] $end
$var wire 8 ," weight_out [7:0] $end
$var wire 32 -" sum_out [31:0] $end
$var reg 16 ." data_reg [15:0] $end
$var reg 8 /" weight_reg [7:0] $end
$var reg 32 0" sum_reg [31:0] $end
$var wire 32 1" mult_result [31:0] $end
$var wire 33 2" sum_ext [32:0] $end
$upscope $end
$upscope $end
$scope module u_accumulator_array $end
$var wire 1 3 clk $end
$var wire 1 9 calc_done_i $end
$var wire 1 8 input_valid_i $end
$var wire 1 : is_init_data_i $end
$var wire 1 & calc_done_o $end
$var reg 1 3" tile_calc_over_o $end
$var reg 1 4" partial_sum_calc_over $end
$var wire 5 5" calc_done_chain [4:0] $end
$var wire 5 6" input_valid_chain [4:0] $end
$var wire 5 7" is_init_data_chain [4:0] $end
$var reg 1 8" calc_done_o_d $end
$var reg 1 9" input_valid_chain_d $end
$var reg 1 :" input_valid_i_d $end
$var reg 2 ;" read_ptr [1:0] $end
$scope module accumulator_gen[0].acc_inst $end
$var wire 1 3 clk $end
$var wire 32 <" data_in [127:96] $end
$var wire 1 =" calc_done_i $end
$var wire 1 >" input_valid_i $end
$var wire 1 ?" is_init_data_i $end
$var wire 2 @" read_ptr_i [1:0] $end
$var wire 32 A" data_out [127:96] $end
$var wire 1 B" calc_done_o $end
$var wire 1 C" input_valid_o $end
$var wire 1 D" is_init_data_o $end
$var reg 1 E" is_init_data_reg $end
$var reg 1 F" input_valid_reg $end
$var reg 1 G" calc_done_reg $end
$var reg 2 H" write_ptr [1:0] $end
$var reg 1 I" input_valid_i_d $end
$scope begin Block54_26 $end
$var reg 33 J" sum [32:0] $end
$upscope $end
$upscope $end
$scope module accumulator_gen[1].acc_inst $end
$var wire 1 3 clk $end
$var wire 32 K" data_in [95:64] $end
$var wire 1 B" calc_done_i $end
$var wire 1 C" input_valid_i $end
$var wire 1 D" is_init_data_i $end
$var wire 2 L" read_ptr_i [1:0] $end
$var wire 32 M" data_out [95:64] $end
$var wire 1 N" calc_done_o $end
$var wire 1 O" input_valid_o $end
$var wire 1 P" is_init_data_o $end
$var reg 1 Q" is_init_data_reg $end
$var reg 1 R" input_valid_reg $end
$var reg 1 S" calc_done_reg $end
$var reg 2 T" write_ptr [1:0] $end
$var reg 1 U" input_valid_i_d $end
$scope begin Block54_26 $end
$var reg 33 V" sum [32:0] $end
$upscope $end
$upscope $end
$scope module accumulator_gen[2].acc_inst $end
$var wire 1 3 clk $end
$var wire 32 W" data_in [63:32] $end
$var wire 1 N" calc_done_i $end
$var wire 1 O" input_valid_i $end
$var wire 1 P" is_init_data_i $end
$var wire 2 X" read_ptr_i [1:0] $end
$var wire 32 Y" data_out [63:32] $end
$var wire 1 Z" calc_done_o $end
$var wire 1 [" input_valid_o $end
$var wire 1 \" is_init_data_o $end
$var reg 1 ]" is_init_data_reg $end
$var reg 1 ^" input_valid_reg $end
$var reg 1 _" calc_done_reg $end
$var reg 2 `" write_ptr [1:0] $end
$var reg 1 a" input_valid_i_d $end
$scope begin Block54_26 $end
$var reg 33 b" sum [32:0] $end
$upscope $end
$upscope $end
$scope module accumulator_gen[3].acc_inst $end
$var wire 1 3 clk $end
$var wire 32 c" data_in [31:0] $end
$var wire 1 Z" calc_done_i $end
$var wire 1 [" input_valid_i $end
$var wire 1 \" is_init_data_i $end
$var wire 2 d" read_ptr_i [1:0] $end
$var wire 32 e" data_out [31:0] $end
$var wire 1 f" calc_done_o $end
$var wire 1 g" input_valid_o $end
$var wire 1 h" is_init_data_o $end
$var reg 1 i" is_init_data_reg $end
$var reg 1 j" input_valid_reg $end
$var reg 1 k" calc_done_reg $end
$var reg 2 l" write_ptr [1:0] $end
$var reg 1 m" input_valid_i_d $end
$scope begin Block54_26 $end
$var reg 33 n" sum [32:0] $end
$upscope $end
$upscope $end
$upscope $end
$upscope $end
$scope begin Block98_33 $end
$var reg 32 o" c [31:0] $end
$upscope $end
$scope begin Block120_35 $end
$var reg 32 p" seg [31:0] $end
$upscope $end
$scope begin Block150_36 $end
$var reg 32 q" r [31:0] $end
$scope begin Block151_37 $end
$var reg 32 r" c [31:0] $end
$upscope $end
$upscope $end
$scope begin Block175_39 $end
$var reg 32 s" i [31:0] $end
$upscope $end
$scope task load_weight_tile $end
$scope begin Block185_40 $end
$scope begin Block185_41 $end
$upscope $end
$upscope $end
$upscope $end
$scope task stream_ia_tile $end
$scope begin Block201_43 $end
$scope begin Block201_44 $end
$upscope $end
$upscope $end
$upscope $end
$upscope $end
$enddefinitions $end

#0
$dumpvars
0!
bx !!
bx !"
x"
bx "!
bx ""
x#
bx #!
bx #"
x$
bx $!
bx $"
x%
bx %!
bx %"
x&
bx &!
bx &"
x'
bx '!
bx '"
x(
bx (!
bx ("
b0 )
bx )!
bx )"
b0 *
bx *!
bx *"
bx +
bx +!
bx +"
b10000 ,
bx ,!
bx ,"
b100 -
bx -!
bx -"
0.
bx .!
bx ."
0/
bx /!
bx /"
00
bx 0!
bx 0"
01
bx 1!
bx 1"
b100 2
bx 2!
bx 2"
03
bx 3!
x3"
x4
bx 4!
x4"
x5
bx 5!
bx 5"
x6
bx 6!
bx 6"
x7
bx 7!
bx 7"
x8
bx 8!
x8"
x9
bx 9!
x9"
x:
bx :!
x:"
bx ;
bx ;!
bx ;"
bx <
bx <!
bx <"
bx =
bx =!
x="
bx >
bx >!
x>"
b0 ?
bx ?!
x?"
b0 @
bx @!
bx @"
b0 A
bx A!
bx A"
bx B
bx B!
xB"
bx C
bx C!
xC"
bx D
bx D!
xD"
bx E
bx E!
xE"
bx F
bx F!
xF"
bx G
bx G!
xG"
bx H
bx H!
bx H"
bx I
bx I!
xI"
b0 J
bx J!
bx J"
bx K
bx K!
bx K"
b0 L
bx L!
bx L"
bx M
bx M!
bx M"
bx N
bx N!
xN"
bx O
bx O!
xO"
bx P
bx P!
xP"
bx Q
bx Q!
xQ"
bx R
bx R!
xR"
bx S
bx S!
xS"
bx T
bx T!
bx T"
b0 U
bx U!
xU"
bx V
bx V!
bx V"
b0 W
bx W!
bx W"
bx X
bx X!
bx X"
bx Y
bx Y!
bx Y"
bx Z
bx Z!
xZ"
bx [
bx [!
x["
bx \
bx \!
x\"
bx ]
bx ]!
x]"
bx ^
bx ^!
x^"
bx _
bx _!
x_"
b0 `
bx `!
bx `"
bx a
bx a!
xa"
b0 b
bx b!
bx b"
bx c
bx c!
bx c"
bx d
bx d!
bx d"
bx e
bx e!
bx e"
bx f
bx f!
xf"
bx g
bx g!
xg"
bx h
bx h!
xh"
bx i
bx i!
xi"
bx j
bx j!
xj"
bx k
bx k!
xk"
bx l
bx l!
bx l"
bx m
bx m!
xm"
bx n
bx n!
bx n"
bx o
bx o!
b0 o"
bx p
bx p!
b0 p"
bx q
bx q!
b0 q"
bx r
bx r!
b0 r"
bx s
bx s!
b0 s"
bx t
bx t!
bx u
bx u!
bx v
bx v!
bx w
bx w!
bx x
bx x!
bx y
bx y!
bx z
bx z!
bx {
bx {!
bx |
bx |!
bx }
bx }!
bx ~
bx ~!
$end

#5000
1!
0"
0#
0$
0%
13
04
05
06
07
b0 ;
b10 <
b11 =
b100 >
b0 B
b0 E
b0 G
b0 K
b0 R
b0 ]
b0 h
b0 l

#10000
0!
03

#15000
1!
13
b0 :!
b10 <
b11 =
b100 >
b0 M
b0 P
b0 V
b0 n
b0 q
b0 w

#20000
0!
03

#25000
1!
b0 $!
13
b10 <
b0 <!
b11 =
b100 >
b0 ?!
b0 E!
b0 X
b0 [
b0 a
b0 f!
b0 y
b0 |

#30000
0!
03

#35000
1!
b0 &!
b0 )!
b0 /!
13
b10 <
b11 =
b100 >
b0 G!
b0 J!
b0 P!
b0 c
b0 f
b0 h!
b0 k!
b0 q!

#40000
0!
03

#45000
1!
1"
1.
b0 1!
13
14
b0 4!
bx0 5"
bx0 6"
bx0 7"
08
09
0:
b10 <
b11 =
0="
b100 >
0>"
b100 ?
0?"
b0 R!
b111 U
b0 U!
b0 [!
b11111001 `
b0 s!
b0 v!
b0 |!

#50000
0!
03

#55000
1!
b111 #!
b0 #"
b0 %!
b0 %"
b0 )"
b0 +!
b0 +"
b11111001 .!
b0 ."
b0 0!
b0 0"
13
bx00 5"
b0 6!
bx00 6"
bx00 7"
0:"
b10 <
b11 =
b100 >
b11111101 ?
b0 A!
0B"
b100 C
0C"
b0 D
0D"
0E"
b100 F
0F"
0G"
b0 H
b0 I
0I"
b11111000 J
b0 L!
b0 N
b0 O
b0 Q
b0 S
b0 T
b11111110 U
b0 W!
b111 Y
b0 Z
b111 \
b0 ]!
b0 ^
b0 _
b11111110 `
b0 `!
b0 b!
b11111001 d
b0 e
b11111001 g
b0 i
b0 j
b100 k
b0 m
b0 m!
b0 s
b0 v
b0 x
b0 x!
b0 ~
b0 ~!

#60000
0!
03

#65000
1!
b0 !!
b0 "!
b11111110 #!
b111 '!
b0 (!
b111 *!
b0 ,!
b0 -!
b11111110 .!
b11111001 2!
13
b0 3!
b11111001 5!
bx000 5"
bx000 6"
b0 7!
bx000 7"
b0 8!
b100 9!
b0 ;!
b10 <
b11 =
b100 >
b1 ?
b11111101 C
b0 D!
b11111101 F
b0 F!
b101 J
b11111000 N
0N"
b111 O!
0O"
0P"
b11111000 Q
b0 Q!
0Q"
0R"
0S"
b11111101 U
0U"
b11111110 Y
b11111001 Z!
b11111110 \
b0 \!
b100 `
b11111110 d
b11111110 g
b11111101 k
b100 o
b0 p
b100 r
b0 t
b0 u
b11111000 v
b0 z
b0 {
b0 }

#70000
0!
03

#75000
1!
b11111101 #!
b11111110 '!
b11111001 ("
b11111110 *!
b0 *"
b100 .!
b11111110 2!
13
b11111110 5!
bx0000 5"
bx0000 6"
bx0000 7"
b11111101 9!
b10 <
b11 =
b100 =!
b100 >
b0 >!
b11 ?
b100 @!
b0 B!
b1 C
b0 C!
b11111000 D!
b1 F
b0 H!
b0 I!
b11111001 J
b0 K!
b0 M!
b101 N
b0 N!
b11111110 O!
b101 Q
b111 S!
b0 T!
b11111010 U
b111 V!
b0 X!
b11111101 Y
b0 Y!
b11111110 Z!
0Z"
0["
b11111101 \
0\"
0]"
b11111001 ^!
0^"
b0 _!
0_"
b101 `
b11111001 a!
0a"
b0 c!
b100 d
b0 d!
b100 e!
b100 g
b0 g!
b1 k
b11111101 o
b0 p!
b11111101 r
b0 r!
b101 v
b11111000 z
b111 {!
b11111000 }
b0 }!

#80000
0!
03

#85000
1!
b111 !"
0"
b0 ""
b11111010 #!
b111 $"
0&
b0 &"
b11111101 '!
b0 '"
b11111110 ("
b11111101 *!
b11111001 ,"
b0 -"
0.
b101 .!
b11111001 /"
b0 1"
b100 2!
b0 2"
13
04
b100 5!
b0 5"
b0 6"
b0 7"
b1 9!
b10 <
b0 <"
b11 =
b11111101 =!
b100 >
b11111101 @!
b11 C
b101 D!
b11 F
b11111000 H!
b11111000 K!
b0 K"
b11111001 N
b11111101 O!
b11111001 Q
b11111110 S!
b11111110 V!
b0 W"
b11111010 Y
b100 Z!
b11111010 \
b11111110 ^!
b11111110 a!
b0 c"
b101 d
b11111101 e!
0f"
b101 g
0g"
0h"
b100 i!
0i"
b0 j!
0j"
b11 k
0k"
b100 l!
0m"
b0 n!
b1 o
b0 o!
b11111000 p!
b1 r
b0 t!
b0 u!
b11111001 v
b0 w!
b0 y!
b101 z
b0 z!
b11111110 {!
b101 }

#90000
0!
03

#95000
1!
1#
1%
1/
11
13
15
17
08"
09"
b10 <
b11 =
b100 >
b1111111111111110 @

#100000
0!
03

#105000
1!
0'
0(
13
03"
04"
b1111111111111001 ;
b10 <
b11 =
b100 >
b1111111111111110 B
b11111111111111111111111111111010 D
b1111111111111110 E
b11111111111111111111111111111010 H
b111111111111111111111111111111010 I
b1111111111111110 K
b1111111111111001 l
b11111111111111111111111111111010 m

#110000
0!
03

#115000
1!
13
b1111111111111011 :!
b1111111111111000 ;
b11111111111111111111111111110011 ;!
b10 <
b11 =
b100 >
b1111111111111011 @
b1111111111111110 M
b1110 O
b1111111111111110 P
b1110 S
b1110 T
b1111111111111110 V
b1111111111111000 l
b1111111111111001 n
b11111111111111111111111111110011 p
b1111111111111001 q
b11111111111111111111111111111010 s
b11111111111111111111111111111001 t
b111111111111111111111111111110011 u
b1111111111111001 w
b1110 x

#120000
0!
03

#125000
1!
b11111111111111111111111111011101 !!
b111111111111111111111111111101011 "!
b1111111111111001 $!
b1100 %!
13
b1 :!
b1111111111111010 ;
b11111111111111111111111111110010 ;!
b10 <
b1111111111111011 <!
b11 =
b100 >
b10 >!
b1111111111111011 ?!
b11 @
b11111111111111111111111111110011 A!
b1111111111111011 B
b1111 B!
b10 C!
b11111111111111111111111111110001 D
b1111111111111011 E
b1111111111111011 E!
b11111111111111111111111111101011 F!
b11111111111111111111111111110001 H
b111111111111111111111111111110001 I
b1111111111111011 K
b1111111111111110 X
b1100 Z
b1111111111111110 [
b1100 ^
b1100 _
b1111111111111110 a
b10 f!
b10 g!
b1111111111111010 l
b11111111111111111111111111110001 m
b1111111111111000 n
b11111111111111111111111111110010 p
b1111111111111000 q
b11111111111111111111111111111000 t
b111111111111111111111111111110010 u
b1111111111111000 w
b1111111111111001 y
b11111111111111111111111111101011 {
b1111111111111001 |
b1110 ~

#130000
0!
03

#135000
1!
b11111111111111111111111111011000 !!
b111111111111111111111111111100110 "!
0#
b1111111111111000 $!
0%
b1111111111111001 &!
b100001 (!
b1111111111111001 )!
b1100 +!
b10101 ,!
b100001 -!
0/
b1111111111111001 /!
b11111111111111111111111111110110 0!
01
13
05
b1 6"
07
b1 7"
18
1:
b1111111111111111 :!
b10 ;
b11111111111111111111111111101011 ;!
b10 <
b1 <!
b1010 <"
b11 =
b100 >
b11111111111111111111111111101111 >!
1>"
b1 ?!
1?"
b0 @
b11111111111111111111111111110010 A!
b11 B
b11111111111111111111111111111101 B!
b111111111111111111111111111101111 C!
b1001 D
b11 E
b1 E!
b11111111111111111111111111100110 F!
b1111111111111011 G!
b1001 H
b1001 I
b10011 I!
b1111111111111011 J!
b11 K
b11111111111111111111111111101011 L!
b1111111111111011 M
b101000 M!
b10011 N!
b100011 O
b1111111111111011 P
b1111111111111011 P!
b100001 Q!
b100011 S
b100011 T
b1111111111111011 V
b1111111111111110 c
b11111111111111111111111111110110 e
b1111111111111110 f
b1111111111111010 f!
b11111111111111111111111111101111 g!
b10 h!
b11111111111111111111111111110110 i
b111111111111111111111111111110110 j
b1010 j!
b10 k!
b10 l
b1001 m
b10 m!
b1111111111111010 n
b1000 n!
b1010 o!
b11111111111111111111111111101011 p
b1 p"
b1111111111111010 q
b10 q!
b10011 r!
b11111111111111111111111111110001 s
b11111111111111111111111111111010 t
b111111111111111111111111111101011 u
b1111111111111010 w
b100011 x
b1111111111111000 y
b11111111111111111111111111100110 {
b1111111111111000 |

#140000
0!
03

#145000
1!
b11111111111111111111111111100010 !!
b101 "!
b1111111111111010 $!
b11110 %!
b1111111111111000 &!
b100100 (!
b1111111111111000 )!
b11000 ,!
b100100 -!
b1111111111111000 /!
b1111111111111001 1!
13
b11111111111111111111111111011010 3!
b1111111111111001 4!
b11111111111111111111111111110110 6!
b11 6"
b11111111111111111111111111100100 7!
b11 7"
b111111111111111111111111111011010 8!
b101 :!
1:"
b0 ;
b1011 ;!
b0 ;"
b10 <
b1111111111111111 <!
b11111111111111111111111111010111 <"
b11 =
b100 >
b11111111111111111111111111101110 >!
b1111111111111111 ?!
b0 @"
b11111111111111111111111111101011 A!
b1010 A"
b0 B
b11 B!
b111111111111111111111111111101110 C!
1C"
b0 D
1D"
b0 E
b1111111111111111 E!
1E"
b101 F!
1F"
b1 G!
b0 H
b1 H"
b0 I
b11111111111111111111111111011110 I!
1I"
b1 J!
b0 K
b10011 K"
b11111111111111111111111111100110 L!
b0 L"
b11 M
b11111111111111111111111111111000 M!
b111111111111111111111111111011110 N!
b11111111111111111111111111101011 O
b11 P
b1 P!
b100100 Q!
b1111111111111011 R!
b11111111111111111111111111101011 S
b111111111111111111111111111101011 T
b101011 T!
b1111111111111011 U!
b11 V
b100001 W!
b1111111111111011 X
b1010 X!
b0 X"
b101011 Y!
b11110 Z
b1111111111111011 [
b1111111111111011 [!
b11111111111111111111111111011010 \!
b11110 ^
b11110 _
b1111111111111011 a
b0 d"
b11111111111111111111111111101110 g!
b1111111111111010 h!
b11111111111111111111111111010111 j!
b1111111111111010 k!
b0 l
b0 m
b11111111111111111111111111101111 m!
b10 n
b11111111111111111111111111101000 n!
b111111111111111111111111111010111 o!
b1011 p
b10 q
b1111111111111010 q!
b11111111111111111111111111011110 r!
b1001 s
b10 s!
b10 t
b1011 u
b10011 u!
b10 v!
b10 w
b11111111111111111111111111101011 x
b10011 x!
b1111111111111010 y
b10011 z!
b101 {
b1111111111111010 |
b10 |!
b101011 }!
b100011 ~

#150000
0!
03

